2018-06-09 09:20:32 INFO  AppTest:33 - Starting of openActiTimeApptest case
2018-06-09 09:20:36 INFO  AppTest:36 - actitime url opened
2018-06-09 09:20:36 INFO  AppTest:37 - openActiTimeApptest case is pass
